{
  "tags": {
    "allowUnknownTags": true,
    "dictionaries": ["jsdoc","closure"]
  },
  "opts": {
    "encoding": "utf8",
    "destination": "./doc/jsdoc",
    "recurse": true
  },
  "plugins": ["plugins/markdown"],
  "source": {
    "include":[
      "./lib"
    ],
    "exclude":["./nuxt","./dist","./logs","./node_modules","./public","./run"],
    "includePattern": ".+\\.js(doc)?$",
    "excludePattern": "(^|\\/|\\\\)node_modules"
  },
  "templates": {
    "cleverLinks": false,
    "monospaceLinks": false
  }
}
